<svg width="67" height="71" viewBox="0 0 67 71" fill="none" xmlns="http://www.w3.org/2000/svg">
<mask id="mask0" mask-type="alpha" maskUnits="userSpaceOnUse" x="0" y="0" width="67" height="71">
<rect width="67" height="71" rx="10" fill="#FFCC4D"/>
</mask>
<g mask="url(#mask0)">
<path d="M78 31.5016C78 52.7643 60.7679 70 39.4984 70C18.2353 70 1 52.7643 1 31.5016C1 10.2357 18.2353 -7 39.4984 -7C60.7679 -7.00319 78 10.2357 78 31.5016V31.5016Z" fill="#FEF5CC"/>
<path d="M25.7143 36H39.2857C40.0056 36 40.696 35.7127 41.205 35.2012C41.714 34.6897 42 33.996 42 33.2727V8.72727C42 8.00396 41.714 7.31026 41.205 6.7988C40.696 6.28734 40.0056 6 39.2857 6C38.5658 6 37.8754 6.28734 37.3664 6.7988C36.8574 7.31026 36.5714 8.00396 36.5714 8.72727V30.5455H25.7143C24.9944 30.5455 24.304 30.8328 23.795 31.3443C23.286 31.8557 23 32.5494 23 33.2727C23 33.996 23.286 34.6897 23.795 35.2012C24.304 35.7127 24.9944 36 25.7143 36Z" fill="#F9D22A"/>
</g>
</svg>
