<svg width="70" height="71" viewBox="0 0 70 71" fill="none" xmlns="http://www.w3.org/2000/svg">
<mask id="mask0" mask-type="alpha" maskUnits="userSpaceOnUse" x="0" y="0" width="70" height="71">
<rect width="70" height="71" rx="10" fill="#C2A7F7"/>
</mask>
<g mask="url(#mask0)">
<path d="M37.4826 28.432H18.0539C9.18751 28.432 2 35.5456 2 44.3209C2 50.6686 5.76159 56.1468 11.1985 58.6918C13.3818 59.7141 14.7823 61.8815 14.7823 64.272V67.6806C14.7823 68.9766 16.4745 69.4931 17.2115 68.4225L21.0146 62.902C22.1753 61.2177 24.1019 60.2097 26.1617 60.2097H37.4826C46.349 60.2097 53.5365 53.0961 53.5365 44.3209C53.5359 35.5456 46.3484 28.432 37.4826 28.432V28.432Z" fill="#F8FAFD"/>
<path d="M19.8648 44.6251C19.8648 46.245 18.5385 47.5583 16.9017 47.5583C15.265 47.5583 13.938 46.245 13.938 44.6251C13.938 43.0052 15.265 41.6918 16.9017 41.6918C18.5385 41.6918 19.8648 43.0052 19.8648 44.6251Z" fill="#C2A7F7"/>
<path d="M30.732 44.6251C30.732 46.245 29.405 47.5583 27.7682 47.5583C26.1315 47.5583 24.8045 46.245 24.8045 44.6251C24.8045 43.0052 26.1315 41.6918 27.7682 41.6918C29.405 41.6918 30.732 43.0052 30.732 44.6251Z" fill="#C2A7F7"/>
<path d="M41.5985 44.6251C41.5985 46.245 40.2715 47.5583 38.6348 47.5583C36.9981 47.5583 35.6711 46.245 35.6711 44.6251C35.6711 43.0052 36.9981 41.6918 38.6348 41.6918C40.2715 41.6918 41.5985 43.0052 41.5985 44.6251Z" fill="#C2A7F7"/>
<path d="M36.5184 -1H55.9464C64.8129 -1 72.0004 6.1136 72.0004 14.8889C72.0004 21.2366 68.2394 26.7142 62.8025 29.2598C60.6186 30.2821 59.2187 32.4495 59.2187 34.84V38.2486C59.2187 39.544 57.5265 40.0611 56.7889 38.9905L52.9857 33.4694C51.8257 31.7851 49.8991 30.7777 47.8387 30.7777H36.5184C27.652 30.7777 20.4645 23.6641 20.4645 14.8889C20.4645 6.1136 27.652 -1 36.5184 -1V-1Z" fill="#A478FB"/>
<path d="M60.0629 15.1922C60.0629 16.8121 58.7359 18.1254 57.0992 18.1254C55.4625 18.1254 54.1355 16.8121 54.1355 15.1922C54.1355 13.5723 55.4625 12.259 57.0992 12.259C58.7359 12.259 60.0629 13.5723 60.0629 15.1922Z" fill="#C2A7F7"/>
<path d="M49.1958 15.1922C49.1958 16.8121 47.8694 18.1254 46.2327 18.1254C44.5959 18.1254 43.269 16.8121 43.269 15.1922C43.269 13.5723 44.5959 12.259 46.2327 12.259C47.8694 12.259 49.1958 13.5723 49.1958 15.1922Z" fill="#C2A7F7"/>
<path d="M38.3293 15.1926C38.3293 16.8125 37.0023 18.1258 35.3656 18.1258C33.7288 18.1258 32.4019 16.8125 32.4019 15.1926C32.4019 13.5727 33.7288 12.2593 35.3656 12.2593C37.0023 12.2593 38.3293 13.5727 38.3293 15.1926Z" fill="#C2A7F7"/>
</g>
</svg>
