<svg width="68" height="71" viewBox="0 0 68 71" fill="none" xmlns="http://www.w3.org/2000/svg">
<mask id="mask0" mask-type="alpha" maskUnits="userSpaceOnUse" x="0" y="0" width="68" height="71">
<path d="M0 10C0 4.47715 4.47715 0 10 0H58C63.5228 0 68 4.47715 68 10V71H0V10Z" fill="#FA5E59"/>
</mask>
<g mask="url(#mask0)">
<path d="M93.8464 33.6082C93.1366 31.73 91.4115 30.4664 89.8536 29.6701C90.0787 27.9361 90.021 25.7984 88.8785 24.1452C87.7419 22.4949 85.7627 21.6813 84.0605 21.2803C83.87 19.5436 83.2989 17.4807 81.7987 16.1507C79.9389 14.5095 76.4678 14.661 76.0172 15.2333C75.5642 13.2599 75.4058 11.3388 73.0052 10.0807C71.2222 9.15164 69.0988 9.3478 67.4082 9.78346C66.4274 8.33507 64.9674 6.77443 63.0171 6.29544C61.0323 5.79636 59.0474 6.51189 57.5066 7.34263C56.2142 6.17136 54.4196 5.0058 52.4117 5.0058C50.4037 5.0058 48.6091 6.17136 47.3167 7.34263C45.7762 6.5176 43.768 5.80483 41.8121 6.29544C39.856 6.77443 38.3962 8.33507 37.4153 9.78346C35.7304 9.35076 33.5955 9.15459 31.8241 10.0807C30.0411 11.0124 28.9909 12.8792 28.3908 14.5207C26.579 14.414 24.5305 14.8179 23.0247 16.1507C21.5245 17.4807 20.9531 19.5436 20.7629 21.2803C19.0606 21.6813 17.0816 22.4949 15.9448 24.1452C14.8023 25.7984 14.7446 27.9361 14.9697 29.6701C13.4118 30.4664 11.6865 31.7271 10.9769 33.6024C10.4634 34.9555 10.4979 36.5683 11.0807 38.4002H52.4119H93.743C94.3254 36.5683 94.3601 34.9555 93.8464 33.6082V33.6082Z" fill="#FED8D7"/>
<path d="M102.654 36.4983C102.241 35.3168 101.118 34.5486 99.8771 34.5486H4.94624C3.70525 34.5486 2.58262 35.3168 2.16942 36.4983C1.75582 37.68 2.11033 39.0393 3.11459 39.8075L31.7317 62.5552V67.0457C31.7317 68.6999 33.0314 70 34.686 70H70.1374C71.792 70 73.0916 68.6999 73.0916 67.0457V62.5552L101.709 39.8075C102.713 39.0393 103.068 37.6802 102.654 36.4983V36.4983Z" fill="#C9423E"/>
</g>
</svg>
