<svg width="73" height="75" viewBox="0 0 73 75" fill="none" xmlns="http://www.w3.org/2000/svg">
<mask id="mask0" mask-type="alpha" maskUnits="userSpaceOnUse" x="0" y="0" width="73" height="75">
<path d="M0 10C0 4.47715 4.47715 0 10 0H63C68.5228 0 73 4.47715 73 10V75H0V10Z" fill="#FC86BF"/>
</mask>
<g mask="url(#mask0)">
<path fill-rule="evenodd" clip-rule="evenodd" d="M19.621 11.0517C8.25417 30.7397 15.0601 56.0798 34.7715 67.4602C54.478 78.8377 79.8263 72.0619 91.1931 52.3739C102.557 32.6907 95.7512 7.35081 76.0446 -4.02682C56.3331 -15.4072 30.9851 -8.63146 19.621 11.0517V11.0517Z" fill="#EF5E9B"/>
<path fill-rule="evenodd" clip-rule="evenodd" d="M67.703 36.5327C57.4441 34.1529 53.7212 49.6875 63.2572 53.4443C74.6576 56.7318 65.6884 65.6678 80.2791 64.7127C84.5873 61.4758 88.3288 57.3351 91.1931 52.3739C92.1177 50.7724 92.9198 49.1331 93.6117 47.4694L94.495 18.4083C91.6325 10.0096 86.0618 2.49683 78.1766 -2.71063C66.6861 4.91382 72.3261 13.2721 77.632 19.3352C84.9885 27.7414 76.241 38.5082 67.703 36.5327V36.5327Z" fill="#FC86BF"/>
<path fill-rule="evenodd" clip-rule="evenodd" d="M32.2011 -0.313134C34.9195 5.47524 41.5751 10.902 48.5106 6.61795C54.1904 3.11146 62.9224 -8.47031 70 -4.24405C76.7046 -0.235645 76.5064 4.47469 75.3541 -1.68496C62.2429 -9.15529 45.5507 -9.11347 32.2011 -0.313134Z" fill="#FC86BF"/>
<path d="M26.5718 63.9233C26.9065 63.3435 27.605 63.045 28.2763 63.2416C29.1444 63.4958 30.4617 62.806 30.6645 62.1631C30.9122 61.3814 31.7481 60.9479 32.5308 61.1964C33.3136 61.4447 33.7468 62.2802 33.4987 63.0626C32.7956 65.2818 29.795 66.7831 27.442 66.0941C26.654 65.8635 26.2019 65.0379 26.4323 64.25C26.4665 64.1334 26.5137 64.0239 26.5718 63.9233V63.9233Z" fill="black"/>
<path fill-rule="evenodd" clip-rule="evenodd" d="M26.632 45.8498L32.2115 54.4943L40.7389 44.1767C42.2691 42.401 42.1547 40.1344 41.6336 39.0606L40.611 36.9703C39.8405 35.3858 38.8085 35.5039 37.5161 36.6179L32.1458 41.1608L26.632 45.8498Z" fill="#FFCFE6"/>
<path fill-rule="evenodd" clip-rule="evenodd" d="M3.25449 57.7194C3.77562 58.7931 5.49565 60.2774 7.83466 60.1672L21.2288 59.8311L17.8595 50.1181L10.7586 51.5594L3.86764 52.9778C2.1925 53.3009 1.46146 54.0448 2.23485 55.6243L3.25449 57.7194Z" fill="#FFCFE6"/>
<path fill-rule="evenodd" clip-rule="evenodd" d="M18.2408 32.864L22.3282 39.1864L27.2957 33.7627C28.5214 32.4006 28.4047 30.6041 27.9966 29.7661L27.4342 28.6161C26.8286 27.3823 26.0219 27.4732 25.0137 28.3452L18.2408 32.864Z" fill="#FFCFE6"/>
<path fill-rule="evenodd" clip-rule="evenodd" d="M4.34103 41.2654C4.74904 42.1035 6.0942 43.3059 7.92066 43.1749L15.2763 42.6668L12.7975 35.5114L5.05924 38.0451C3.75204 38.2991 3.18082 38.8796 3.77864 40.1155L4.34103 41.2654Z" fill="#FFCFE6"/>
<path fill-rule="evenodd" clip-rule="evenodd" d="M15.2763 42.6668L17.8595 50.1183L21.2287 59.8313L22.2313 62.7286C23.3243 65.7306 24.8983 67.6611 26.5925 68.7243C28.6198 70.0061 31.4314 71.2691 33.1742 70.4088C34.9337 69.5645 35.6659 66.5815 35.9097 64.1941C36.1198 62.2063 35.5672 59.7784 33.8767 57.0733L32.2116 54.4941L26.6321 45.8497L22.3283 39.1863L18.2409 32.8639C15.776 29.5349 11.5224 31.428 12.7978 35.5111L15.2763 42.6668Z" fill="#FFC7E2"/>
</g>
</svg>
